%YAML 1.1
%TAG !u! tag:unity3d.com,2011:
--- !u!74 &7400000
AnimationClip:
  m_ObjectHideFlags: 0
  m_CorrespondingSourceObject: {fileID: 0}
  m_PrefabInstance: {fileID: 0}
  m_PrefabAsset: {fileID: 0}
  m_Name: tirotanqueanim
  serializedVersion: 6
  m_Legacy: 0
  m_Compressed: 0
  m_UseHighQualityCurve: 1
  m_RotationCurves: []
  m_CompressedRotationCurves: []
  m_EulerCurves: []
  m_PositionCurves: []
  m_ScaleCurves: []
  m_FloatCurves: []
  m_PPtrCurves:
  - curve:
    - time: 0
      value: {fileID: -370408515, guid: b4a15eea37b53204da7db64ce1e7e5c4, type: 3}
    - time: 0.06666667
      value: {fileID: 595445313, guid: b4a15eea37b53204da7db64ce1e7e5c4, type: 3}
    - time: 0.13333334
      value: {fileID: -784656265, guid: b4a15eea37b53204da7db64ce1e7e5c4, type: 3}
    - time: 0.2
      value: {fileID: 1805329994, guid: b4a15eea37b53204da7db64ce1e7e5c4, type: 3}
    - time: 0.26666668
      value: {fileID: -108059295, guid: b4a15eea37b53204da7db64ce1e7e5c4, type: 3}
    - time: 0.33333334
      value: {fileID: -489065823, guid: b4a15eea37b53204da7db64ce1e7e5c4, type: 3}
    - time: 0.4
      value: {fileID: -120520668, guid: b4a15eea37b53204da7db64ce1e7e5c4, type: 3}
    - time: 0.46666667
      value: {fileID: 2088367791, guid: b4a15eea37b53204da7db64ce1e7e5c4, type: 3}
    - time: 0.51666665
      value: {fileID: 736608156, guid: b4a15eea37b53204da7db64ce1e7e5c4, type: 3}
    - time: 0.56666666
      value: {fileID: -1201670394, guid: b4a15eea37b53204da7db64ce1e7e5c4, type: 3}
    - time: 0.6166667
      value: {fileID: -1201670394, guid: b4a15eea37b53204da7db64ce1e7e5c4, type: 3}
    - time: 0.6666667
      value: {fileID: 1974484496, guid: b4a15eea37b53204da7db64ce1e7e5c4, type: 3}
    - time: 0.71666664
      value: {fileID: -153042973, guid: b4a15eea37b53204da7db64ce1e7e5c4, type: 3}
    - time: 0.76666665
      value: {fileID: -1141016735, guid: b4a15eea37b53204da7db64ce1e7e5c4, type: 3}
    - time: 0.81666666
      value: {fileID: -1141016735, guid: b4a15eea37b53204da7db64ce1e7e5c4, type: 3}
    - time: 0.8666667
      value: {fileID: -85424015, guid: b4a15eea37b53204da7db64ce1e7e5c4, type: 3}
    - time: 0.9166667
      value: {fileID: 1981127449, guid: b4a15eea37b53204da7db64ce1e7e5c4, type: 3}
    attribute: m_Sprite
    path: 
    classID: 114
    script: {fileID: 11500000, guid: fe87c0e1cc204ed48ad3b37840f39efc, type: 3}
  m_SampleRate: 60
  m_WrapMode: 0
  m_Bounds:
    m_Center: {x: 0, y: 0, z: 0}
    m_Extent: {x: 0, y: 0, z: 0}
  m_ClipBindingConstant:
    genericBindings:
    - serializedVersion: 2
      path: 0
      attribute: 2015549526
      script: {fileID: 11500000, guid: fe87c0e1cc204ed48ad3b37840f39efc, type: 3}
      typeID: 114
      customType: 0
      isPPtrCurve: 1
    pptrCurveMapping:
    - {fileID: -370408515, guid: b4a15eea37b53204da7db64ce1e7e5c4, type: 3}
    - {fileID: 595445313, guid: b4a15eea37b53204da7db64ce1e7e5c4, type: 3}
    - {fileID: -784656265, guid: b4a15eea37b53204da7db64ce1e7e5c4, type: 3}
    - {fileID: 1805329994, guid: b4a15eea37b53204da7db64ce1e7e5c4, type: 3}
    - {fileID: -108059295, guid: b4a15eea37b53204da7db64ce1e7e5c4, type: 3}
    - {fileID: -489065823, guid: b4a15eea37b53204da7db64ce1e7e5c4, type: 3}
    - {fileID: -120520668, guid: b4a15eea37b53204da7db64ce1e7e5c4, type: 3}
    - {fileID: 2088367791, guid: b4a15eea37b53204da7db64ce1e7e5c4, type: 3}
    - {fileID: 736608156, guid: b4a15eea37b53204da7db64ce1e7e5c4, type: 3}
    - {fileID: -1201670394, guid: b4a15eea37b53204da7db64ce1e7e5c4, type: 3}
    - {fileID: -1201670394, guid: b4a15eea37b53204da7db64ce1e7e5c4, type: 3}
    - {fileID: 1974484496, guid: b4a15eea37b53204da7db64ce1e7e5c4, type: 3}
    - {fileID: -153042973, guid: b4a15eea37b53204da7db64ce1e7e5c4, type: 3}
    - {fileID: -1141016735, guid: b4a15eea37b53204da7db64ce1e7e5c4, type: 3}
    - {fileID: -1141016735, guid: b4a15eea37b53204da7db64ce1e7e5c4, type: 3}
    - {fileID: -85424015, guid: b4a15eea37b53204da7db64ce1e7e5c4, type: 3}
    - {fileID: 1981127449, guid: b4a15eea37b53204da7db64ce1e7e5c4, type: 3}
  m_AnimationClipSettings:
    serializedVersion: 2
    m_AdditiveReferencePoseClip: {fileID: 0}
    m_AdditiveReferencePoseTime: 0
    m_StartTime: 0
    m_StopTime: 0.93333334
    m_OrientationOffsetY: 0
    m_Level: 0
    m_CycleOffset: 0
    m_HasAdditiveReferencePose: 0
    m_LoopTime: 0
    m_LoopBlend: 0
    m_LoopBlendOrientation: 0
    m_LoopBlendPositionY: 0
    m_LoopBlendPositionXZ: 0
    m_KeepOriginalOrientation: 0
    m_KeepOriginalPositionY: 1
    m_KeepOriginalPositionXZ: 0
    m_HeightFromFeet: 0
    m_Mirror: 0
  m_EditorCurves: []
  m_EulerEditorCurves: []
  m_HasGenericRootTransform: 0
  m_HasMotionFloatCurves: 0
  m_Events: []
